Progetto_di_sistemi_a_sensore/Contatore_modulo_8/Contatore_modulo_8_sincrono_structural/output.vcd
$date
  Sun Jan 16 11:58:34 2022
$end
$version
  GHDL v0
$end
$timescale
  1 fs
$end
$var reg 1 ! i $end
$var reg 1 " clk $end
$var reg 3 # outt[2:0] $end
$scope module count8_instance $end
$var reg 1 $ i $end
$var reg 1 % clk $end
$var reg 3 & y[2:0] $end
$var reg 1 ' sig0 $end
$var reg 1 ( sig1 $end
$var reg 1 ) sig2 $end
$var reg 1 * incr_tmp $end
$var reg 3 + current_value[2:0] $end
$scope module ff0 $end
$var reg 1 , clk $end
$var reg 1 - ex $end
$upscope $end
$scope module ff1 $end
$var reg 1 . clk $end
$var reg 1 / ex $end
$upscope $end
$scope module ff2 $end
$var reg 1 0 clk $end
$var reg 1 1 ex $end
$upscope $end
$upscope $end
$enddefinitions $end
#0
0!
1"
b000 #
0$
1%
b000 &
0'
0(
0)
U*
b000 +
U,
0-
0.
0/
00
01
#500000000000
0"
0%
#1000000000000
1"
1%
#1500000000000
0"
0%
#2000000000000
1!
1"
1$
1%
1*
1,
#2500000000000
0"
b001 #
0%
b001 &
1'
0*
b001 +
0,
1-
1.
#3000000000000
1"
1%
1*
1,
#3500000000000
0"
b010 #
0%
b010 &
0'
1(
0*
b010 +
0,
0-
0.
1/
10
#4000000000000
1"
1%
1*
1,
#4500000000000
0"
b011 #
0%
b011 &
1'
0*
b011 +
0,
1-
1.
#5000000000000
0!
1"
0$
1%
#5500000000000
0"
0%
#6000000000000
1"
1%
#6500000000000
0"
0%
#7000000000000
1"
1%
#7500000000000
0"
0%
#8000000000000
1"
1%
#8500000000000
0"
0%
#9000000000000
1"
1%
#9500000000000
0"
0%
#10000000000000
1!
1"
1$
1%
1*
1,
#10500000000000
0"
b100 #
0%
b100 &
0'
0(
1)
0*
b100 +
0,
0-
0.
0/
00
11
#11000000000000
1"
1%
1*
1,
#11500000000000
0"
b101 #
0%
b101 &
1'
0*
b101 +
0,
1-
1.
#12000000000000
1"
1%
1*
1,
#12500000000000
0"
b110 #
0%
b110 &
0'
1(
0*
b110 +
0,
0-
0.
1/
10
#13000000000000
1"
1%
1*
1,
#13500000000000
0"
b111 #
0%
b111 &
1'
0*
b111 +
0,
1-
1.
#14000000000000
0!
1"
0$
1%
#14500000000000
0"
0%
#15000000000000
1"
1%
#15500000000000
0"
0%
#16000000000000
1"
1%
#16500000000000
0"
0%
#17000000000000
1"
1%
#17500000000000
0"
0%
#18000000000000
1"
1%
#18500000000000
0"
0%
#19000000000000
1"
1%
#19500000000000
0"
0%
#20000000000000
1"
1%
#20500000000000
0"
0%
#21000000000000
1"
1%
#21500000000000
0"
0%
#22000000000000
1"
1%
#22500000000000
0"
0%
#23000000000000
1"
1%
#23500000000000
0"
0%
#24000000000000
1"
1%
#24500000000000
0"
0%
#25000000000000
1!
1"
1$
1%
1*
1,
#25500000000000
0"
b000 #
0%
b000 &
0'
0(
0)
0*
b000 +
0,
0-
0.
0/
00
01
#26000000000000
1"
1%
1*
1,
#26500000000000
0"
b001 #
0%
b001 &
1'
0*
b001 +
0,
1-
1.
#27000000000000
1"
1%
1*
1,
#27500000000000
0"
b010 #
0%
b010 &
0'
1(
0*
b010 +
0,
0-
0.
1/
10
#28000000000000
0!
1"
0$
1%
#28500000000000
0"
0%
#29000000000000
1"
1%
#29500000000000
0"
0%
#30000000000000
1!
1"
1$
1%
1*
1,
#30500000000000
0"
b011 #
0%
b011 &
1'
0*
b011 +
0,
1-
1.
#31000000000000
1"
1%
1*
1,
#31500000000000
0"
b100 #
0%
b100 &
0'
0(
1)
0*
b100 +
0,
0-
0.
0/
00
11
#32000000000000
1"
1%
1*
1,
#32500000000000
0"
b101 #
0%
b101 &
1'
0*
b101 +
0,
1-
1.
#33000000000000
1"
1%
1*
1,
#33500000000000
0"
b110 #
0%
b110 &
0'
1(
0*
b110 +
0,
0-
0.
1/
10
#34000000000000
1"
1%
1*
1,
#34500000000000
0"
b111 #
0%
b111 &
1'
0*
b111 +
0,
1-
1.
#35000000000000
1"
1%
1*
1,
#35500000000000
0"
b000 #
0%
b000 &
0'
0(
0)
0*
b000 +
0,
0-
0.
0/
00
01
#36000000000000
1"
1%
1*
1,
#36500000000000
0"
b001 #
0%
b001 &
1'
0*
b001 +
0,
1-
1.
#37000000000000
1"
1%
1*
1,
#37500000000000
0"
b010 #
0%
b010 &
0'
1(
0*
b010 +
0,
0-
0.
1/
10
#38000000000000
1"
1%
1*
1,
#38500000000000
0"
b011 #
0%
b011 &
1'
0*
b011 +
0,
1-
1.
#39000000000000
1"
1%
1*
1,
#39500000000000
0"
b100 #
0%
b100 &
0'
0(
1)
0*
b100 +
0,
0-
0.
0/
00
11
#40000000000000
1"
1%
1*
1,
#40500000000000
0"
b101 #
0%
b101 &
1'
0*
b101 +
0,
1-
1.
#41000000000000
1"
1%
1*
1,
#41500000000000
0"
b110 #
0%
b110 &
0'
1(
0*
b110 +
0,
0-
0.
1/
10
#42000000000000
1"
1%
1*
1,
#42500000000000
0"
b111 #
0%
b111 &
1'
0*
b111 +
0,
1-
1.
#43000000000000
1"
1%
1*
1,
#43500000000000
0"
b000 #
0%
b000 &
0'
0(
0)
0*
b000 +
0,
0-
0.
0/
00
01
#44000000000000
1"
1%
1*
1,
#44500000000000
0"
b001 #
0%
b001 &
1'
0*
b001 +
0,
1-
1.
#45000000000000
1"
1%
1*
1,
#45500000000000
0"
b010 #
0%
b010 &
0'
1(
0*
b010 +
0,
0-
0.
1/
10
#46000000000000
1"
1%
1*
1,
#46500000000000
0"
b011 #
0%
b011 &
1'
0*
b011 +
0,
1-
1.
#47000000000000
1"
1%
1*
1,
#47500000000000
0"
b100 #
0%
b100 &
0'
0(
1)
0*
b100 +
0,
0-
0.
0/
00
11
#48000000000000
1"
1%
1*
1,
#48500000000000
0"
b101 #
0%
b101 &
1'
0*
b101 +
0,
1-
1.
#49000000000000
1"
1%
1*
1,
#49500000000000
0"
b110 #
0%
b110 &
0'
1(
0*
b110 +
0,
0-
0.
1/
10
#50000000000000
1"
1%
1*
1,
#50500000000000
0"
b111 #
0%
b111 &
1'
0*
b111 +
0,
1-
1.
#51000000000000
1"
1%
1*
1,
#51500000000000
0"
b000 #
0%
b000 &
0'
0(
0)
0*
b000 +
0,
0-
0.
0/
00
01
#52000000000000
1"
1%
1*
1,
#52500000000000
0"
b001 #
0%
b001 &
1'
0*
b001 +
0,
1-
1.
#53000000000000
1"
1%
1*
1,
#53500000000000
0"
b010 #
0%
b010 &
0'
1(
0*
b010 +
0,
0-
0.
1/
10
#54000000000000
1"
1%
1*
1,
#54500000000000
0"
b011 #
0%
b011 &
1'
0*
b011 +
0,
1-
1.
#55000000000000
1"
1%
1*
1,
#55500000000000
0"
b100 #
0%
b100 &
0'
0(
1)
0*
b100 +
0,
0-
0.
0/
00
11
#56000000000000
1"
1%
1*
1,
#56500000000000
0"
b101 #
0%
b101 &
1'
0*
b101 +
0,
1-
1.
#57000000000000
1"
1%
1*
1,
#57500000000000
0"
b110 #
0%
b110 &
0'
1(
0*
b110 +
0,
0-
0.
1/
10
#58000000000000
1"
1%
1*
1,
#58500000000000
0"
b111 #
0%
b111 &
1'
0*
b111 +
0,
1-
1.
#59000000000000
1"
1%
1*
1,
#59500000000000
0"
b000 #
0%
b000 &
0'
0(
0)
0*
b000 +
0,
0-
0.
0/
00
01
#60000000000000
1"
1%
1*
1,
#60500000000000
0"
b001 #
0%
b001 &
1'
0*
b001 +
0,
1-
1.
#61000000000000
1"
1%
1*
1,
#61500000000000
0"
b010 #
0%
b010 &
0'
1(
0*
b010 +
0,
0-
0.
1/
10
#62000000000000
1"
1%
1*
1,
#62500000000000
0"
b011 #
0%
b011 &
1'
0*
b011 +
0,
1-
1.
#63000000000000
1"
1%
1*
1,
#63500000000000
0"
b100 #
0%
b100 &
0'
0(
1)
0*
b100 +
0,
0-
0.
0/
00
11
#64000000000000
1"
1%
1*
1,
#64500000000000
0"
b101 #
0%
b101 &
1'
0*
b101 +
0,
1-
1.
#65000000000000
1"
1%
1*
1,
#65500000000000
0"
b110 #
0%
b110 &
0'
1(
0*
b110 +
0,
0-
0.
1/
10
#66000000000000
1"
1%
1*
1,
#66500000000000
0"
b111 #
0%
b111 &
1'
0*
b111 +
0,
1-
1.
#67000000000000
1"
1%
1*
1,
#67500000000000
0"
b000 #
0%
b000 &
0'
0(
0)
0*
b000 +
0,
0-
0.
0/
00
01
#68000000000000
1"
1%
1*
1,
#68500000000000
0"
b001 #
0%
b001 &
1'
0*
b001 +
0,
1-
1.
#69000000000000
1"
1%
1*
1,
#69500000000000
0"
b010 #
0%
b010 &
0'
1(
0*
b010 +
0,
0-
0.
1/
10
#70000000000000
1"
1%
1*
1,
#70500000000000
0"
b011 #
0%
b011 &
1'
0*
b011 +
0,
1-
1.
#71000000000000
1"
1%
1*
1,
#71500000000000
0"
b100 #
0%
b100 &
0'
0(
1)
0*
b100 +
0,
0-
0.
0/
00
11
#72000000000000
1"
1%
1*
1,
#72500000000000
0"
b101 #
0%
b101 &
1'
0*
b101 +
0,
1-
1.
#73000000000000
1"
1%
1*
1,
#73500000000000
0"
b110 #
0%
b110 &
0'
1(
0*
b110 +
0,
0-
0.
1/
10
#74000000000000
1"
1%
1*
1,
#74500000000000
0"
b111 #
0%
b111 &
1'
0*
b111 +
0,
1-
1.
#75000000000000
1"
1%
1*
1,
#75500000000000
0"
b000 #
0%
b000 &
0'
0(
0)
0*
b000 +
0,
0-
0.
0/
00
01
#76000000000000
1"
1%
1*
1,
#76500000000000
0"
b001 #
0%
b001 &
1'
0*
b001 +
0,
1-
1.
#77000000000000
1"
1%
1*
1,
#77500000000000
0"
b010 #
0%
b010 &
0'
1(
0*
b010 +
0,
0-
0.
1/
10
#78000000000000
1"
1%
1*
1,
#78500000000000
0"
b011 #
0%
b011 &
1'
0*
b011 +
0,
1-
1.
#79000000000000
1"
1%
1*
1,
#79500000000000
0"
b100 #
0%
b100 &
0'
0(
1)
0*
b100 +
0,
0-
0.
0/
00
11
#80000000000000
1"
1%
1*
1,
#80500000000000
0"
b101 #
0%
b101 &
1'
0*
b101 +
0,
1-
1.
#81000000000000
1"
1%
1*
1,
#81500000000000
0"
b110 #
0%
b110 &
0'
1(
0*
b110 +
0,
0-
0.
1/
10
#82000000000000
1"
1%
1*
1,
#82500000000000
0"
b111 #
0%
b111 &
1'
0*
b111 +
0,
1-
1.
#83000000000000
1"
1%
1*
1,
#83500000000000
0"
b000 #
0%
b000 &
0'
0(
0)
0*
b000 +
0,
0-
0.
0/
00
01
#84000000000000
1"
1%
1*
1,
#84500000000000
0"
b001 #
0%
b001 &
1'
0*
b001 +
0,
1-
1.
#85000000000000
1"
1%
1*
1,
#85500000000000
0"
b010 #
0%
b010 &
0'
1(
0*
b010 +
0,
0-
0.
1/
10
#86000000000000
1"
1%
1*
1,
#86500000000000
0"
b011 #
0%
b011 &
1'
0*
b011 +
0,
1-
1.
#87000000000000
1"
1%
1*
1,
#87500000000000
0"
b100 #
0%
b100 &
0'
0(
1)
0*
b100 +
0,
0-
0.
0/
00
11
#88000000000000
1"
1%
1*
1,
#88500000000000
0"
b101 #
0%
b101 &
1'
0*
b101 +
0,
1-
1.
#89000000000000
1"
1%
1*
1,
#89500000000000
0"
b110 #
0%
b110 &
0'
1(
0*
b110 +
0,
0-
0.
1/
10
#90000000000000
1"
1%
1*
1,
#90500000000000
0"
b111 #
0%
b111 &
1'
0*
b111 +
0,
1-
1.
#91000000000000
1"
1%
1*
1,
#91500000000000
0"
b000 #
0%
b000 &
0'
0(
0)
0*
b000 +
0,
0-
0.
0/
00
01
#92000000000000
1"
1%
1*
1,
#92500000000000
0"
b001 #
0%
b001 &
1'
0*
b001 +
0,
1-
1.
#93000000000000
1"
1%
1*
1,
#93500000000000
0"
b010 #
0%
b010 &
0'
1(
0*
b010 +
0,
0-
0.
1/
10
#94000000000000
1"
1%
1*
1,
#94500000000000
0"
b011 #
0%
b011 &
1'
0*
b011 +
0,
1-
1.
#95000000000000
1"
1%
1*
1,
#95500000000000
0"
b100 #
0%
b100 &
0'
0(
1)
0*
b100 +
0,
0-
0.
0/
00
11
#96000000000000
1"
1%
1*
1,
#96500000000000
0"
b101 #
0%
b101 &
1'
0*
b101 +
0,
1-
1.
#97000000000000
1"
1%
1*
1,
#97500000000000
0"
b110 #
0%
b110 &
0'
1(
0*
b110 +
0,
0-
0.
1/
10
#98000000000000
1"
1%
1*
1,
#98500000000000
0"
b111 #
0%
b111 &
1'
0*
b111 +
0,
1-
1.
#99000000000000
1"
1%
1*
1,
#99500000000000
0"
b000 #
0%
b000 &
0'
0(
0)
0*
b000 +
0,
0-
0.
0/
00
01
