Progetto_di_sistemi_a_sensore/Contatore_modulo_8/Contatore_modulo_8_sincrono_functional/output.vcd
$date
  Sun Jan 16 10:24:05 2022
$end
$version
  GHDL v0
$end
$timescale
  1 fs
$end
$var reg 1 ! i $end
$var reg 1 " clk $end
$var reg 3 # outt[2:0] $end
$scope module count8_instance $end
$var reg 1 $ i $end
$var reg 1 % ck $end
$var reg 3 & y[2:0] $end
$upscope $end
$enddefinitions $end
#0
0!
1"
b000 #
0$
1%
b000 &
#500000000
0"
0%
#1000000000
1"
1%
#1500000000
0"
0%
#2000000000
1!
1"
b001 #
1$
1%
b001 &
#2500000000
0"
0%
#3000000000
1"
b010 #
1%
b010 &
#3500000000
0"
0%
#4000000000
1"
b011 #
1%
b011 &
#4500000000
0"
0%
#5000000000
0!
1"
0$
1%
#5500000000
0"
0%
#6000000000
1"
1%
#6500000000
0"
0%
#7000000000
1"
1%
#7500000000
0"
0%
#8000000000
1"
1%
#8500000000
0"
0%
#9000000000
1"
1%
#9500000000
0"
0%
#10000000000
1!
1"
b100 #
1$
1%
b100 &
#10500000000
0"
0%
#11000000000
1"
b101 #
1%
b101 &
#11500000000
0"
0%
#12000000000
1"
b110 #
1%
b110 &
#12500000000
0"
0%
#13000000000
1"
b111 #
1%
b111 &
#13500000000
0"
0%
#14000000000
0!
1"
0$
1%
#14500000000
0"
0%
#15000000000
1"
1%
#15500000000
0"
0%
#16000000000
1"
1%
#16500000000
0"
0%
#17000000000
1"
1%
#17500000000
0"
0%
#18000000000
1"
1%
#18500000000
0"
0%
#19000000000
1"
1%
#19500000000
0"
0%
#20000000000
1"
1%
#20500000000
0"
0%
#21000000000
1"
1%
#21500000000
0"
0%
#22000000000
1"
1%
#22500000000
0"
0%
#23000000000
1"
1%
#23500000000
0"
0%
#24000000000
1"
1%
#24500000000
0"
0%
#25000000000
1!
1"
b000 #
1$
1%
b000 &
#25500000000
0"
0%
#26000000000
1"
b001 #
1%
b001 &
#26500000000
0"
0%
#27000000000
1"
b010 #
1%
b010 &
#27500000000
0"
0%
#28000000000
0!
1"
0$
1%
#28500000000
0"
0%
#29000000000
1"
1%
#29500000000
0"
0%
#30000000000
1!
1"
b011 #
1$
1%
b011 &
#30500000000
0"
0%
#31000000000
1"
b100 #
1%
b100 &
#31500000000
0"
0%
#32000000000
1"
b101 #
1%
b101 &
#32500000000
0"
0%
#33000000000
1"
b110 #
1%
b110 &
#33500000000
0"
0%
#34000000000
1"
b111 #
1%
b111 &
#34500000000
0"
0%
#35000000000
1"
b000 #
1%
b000 &
#35500000000
0"
0%
#36000000000
1"
b001 #
1%
b001 &
#36500000000
0"
0%
#37000000000
1"
b010 #
1%
b010 &
#37500000000
0"
0%
#38000000000
1"
b011 #
1%
b011 &
#38500000000
0"
0%
#39000000000
1"
b100 #
1%
b100 &
#39500000000
0"
0%
#40000000000
1"
b101 #
1%
b101 &
#40500000000
0"
0%
#41000000000
1"
b110 #
1%
b110 &
#41500000000
0"
0%
#42000000000
1"
b111 #
1%
b111 &
#42500000000
0"
0%
#43000000000
1"
b000 #
1%
b000 &
#43500000000
0"
0%
#44000000000
1"
b001 #
1%
b001 &
#44500000000
0"
0%
#45000000000
1"
b010 #
1%
b010 &
#45500000000
0"
0%
#46000000000
1"
b011 #
1%
b011 &
#46500000000
0"
0%
#47000000000
1"
b100 #
1%
b100 &
#47500000000
0"
0%
#48000000000
1"
b101 #
1%
b101 &
#48500000000
0"
0%
#49000000000
1"
b110 #
1%
b110 &
#49500000000
0"
0%
#50000000000
1"
b111 #
1%
b111 &
#50500000000
0"
0%
#51000000000
1"
b000 #
1%
b000 &
#51500000000
0"
0%
#52000000000
1"
b001 #
1%
b001 &
#52500000000
0"
0%
#53000000000
1"
b010 #
1%
b010 &
#53500000000
0"
0%
#54000000000
1"
b011 #
1%
b011 &
#54500000000
0"
0%
#55000000000
1"
b100 #
1%
b100 &
#55500000000
0"
0%
#56000000000
1"
b101 #
1%
b101 &
#56500000000
0"
0%
#57000000000
1"
b110 #
1%
b110 &
#57500000000
0"
0%
#58000000000
1"
b111 #
1%
b111 &
#58500000000
0"
0%
#59000000000
1"
b000 #
1%
b000 &
#59500000000
0"
0%
#60000000000
1"
b001 #
1%
b001 &
#60500000000
0"
0%
#61000000000
1"
b010 #
1%
b010 &
#61500000000
0"
0%
#62000000000
1"
b011 #
1%
b011 &
#62500000000
0"
0%
#63000000000
1"
b100 #
1%
b100 &
#63500000000
0"
0%
#64000000000
1"
b101 #
1%
b101 &
#64500000000
0"
0%
#65000000000
1"
b110 #
1%
b110 &
#65500000000
0"
0%
#66000000000
1"
b111 #
1%
b111 &
#66500000000
0"
0%
#67000000000
1"
b000 #
1%
b000 &
#67500000000
0"
0%
#68000000000
1"
b001 #
1%
b001 &
#68500000000
0"
0%
#69000000000
1"
b010 #
1%
b010 &
#69500000000
0"
0%
#70000000000
1"
b011 #
1%
b011 &
#70500000000
0"
0%
#71000000000
1"
b100 #
1%
b100 &
#71500000000
0"
0%
#72000000000
1"
b101 #
1%
b101 &
#72500000000
0"
0%
#73000000000
1"
b110 #
1%
b110 &
#73500000000
0"
0%
#74000000000
1"
b111 #
1%
b111 &
#74500000000
0"
0%
#75000000000
1"
b000 #
1%
b000 &
#75500000000
0"
0%
#76000000000
1"
b001 #
1%
b001 &
#76500000000
0"
0%
#77000000000
1"
b010 #
1%
b010 &
#77500000000
0"
0%
#78000000000
1"
b011 #
1%
b011 &
#78500000000
0"
0%
#79000000000
1"
b100 #
1%
b100 &
#79500000000
0"
0%
#80000000000
1"
b101 #
1%
b101 &
#80500000000
0"
0%
#81000000000
1"
b110 #
1%
b110 &
#81500000000
0"
0%
#82000000000
1"
b111 #
1%
b111 &
#82500000000
0"
0%
#83000000000
1"
b000 #
1%
b000 &
#83500000000
0"
0%
#84000000000
1"
b001 #
1%
b001 &
#84500000000
0"
0%
#85000000000
1"
b010 #
1%
b010 &
#85500000000
0"
0%
#86000000000
1"
b011 #
1%
b011 &
#86500000000
0"
0%
#87000000000
1"
b100 #
1%
b100 &
#87500000000
0"
0%
#88000000000
1"
b101 #
1%
b101 &
#88500000000
0"
0%
#89000000000
1"
b110 #
1%
b110 &
#89500000000
0"
0%
#90000000000
1"
b111 #
1%
b111 &
#90500000000
0"
0%
#91000000000
1"
b000 #
1%
b000 &
#91500000000
0"
0%
#92000000000
1"
b001 #
1%
b001 &
#92500000000
0"
0%
#93000000000
1"
b010 #
1%
b010 &
#93500000000
0"
0%
#94000000000
1"
b011 #
1%
b011 &
#94500000000
0"
0%
#95000000000
1"
b100 #
1%
b100 &
#95500000000
0"
0%
#96000000000
1"
b101 #
1%
b101 &
#96500000000
0"
0%
#97000000000
1"
b110 #
1%
b110 &
#97500000000
0"
0%
#98000000000
1"
b111 #
1%
b111 &
#98500000000
0"
0%
#99000000000
1"
b000 #
1%
b000 &
